DEA 1 - Budweiser
…
4. Median of alcohol content and bitterness by each state.

#This code will create a table of Medians for ABV and IBU for each state and graphically display a bar chart 

# created a clean table with stats for ABV and IBU
bbdf_clean_stats = bbdf_clean %>% group_by(State) %>% summarise(Mean_ABV=mean(ABV), Max_ABV=max(ABV), Min_ABV=min(ABV), Median_ABV=median(ABV), Std_ABV=sd(ABV),Mean_IBU=mean(IBU), Max_IBU=max(IBU), Min_IBU=min(IBU), Median_IBU=median(IBU), Std_IBU=sd(IBU))

# Clean table with Medians for ABV and IBU
bbdf_clean_Medians = bbdf_clean_stats %>% select(State, Median_ABV, Median_IBU)
bbdf_clean_Medians

## # A tibble: 50 x 3
##    State Median_ABV Median_IBU
##    <chr>      <dbl>      <dbl>
##  1 " AK"     0.057        46  
##  2 " AL"     0.06         43  
##  3 " AR"     0.04         39  
##  4 " AZ"     0.0575       20.5
##  5 " CA"     0.058        42  
##  6 " CO"     0.065        40  
##  7 " CT"     0.061        29  
##  8 " DC"     0.059        47.5
##  9 " DE"     0.055        52  
## 10 " FL"     0.062        55  
## # ... with 40 more rows
…
